<svg xmlns="http://www.w3.org/2000/svg" width="14.798" height="14.798" viewBox="0 0 14.798 14.798">
  <path id="União_16" data-name="União 16" d="M-18.067-120.5a.859.859,0,0,1-.622-.266.888.888,0,0,1-.311-.678v-8.664a.891.891,0,0,1,.891-.892.892.892,0,0,1,.892.892v7.889h7.785a.859.859,0,0,1,.859.859.859.859,0,0,1-.859.86Z" transform="translate(86.57 -91.268) rotate(-135)" fill="#f36a10"/>
</svg>
