<svg id="Grupo_134" data-name="Grupo 134" xmlns="http://www.w3.org/2000/svg" width="17.163" height="17.136" viewBox="0 0 17.163 17.136">
  <path id="Caminho_129" data-name="Caminho 129" d="M126.578,208.69h3.56v11.446h-3.56Zm1.786-5.69a2.064,2.064,0,1,1-2.064,2.064A2.067,2.067,0,0,1,128.364,203" transform="translate(-126.3 -203)" fill="#1a1818"/>
  <path id="Caminho_130" data-name="Caminho 130" d="M218.1,285.078h3.407v1.568h.046a3.738,3.738,0,0,1,3.368-1.846c3.6,0,4.268,2.369,4.268,5.452v6.272h-3.553V290.96c0-1.33-.02-3.037-1.846-3.037-1.853,0-2.131,1.449-2.131,2.938v5.664h-3.553l-.007-11.446Z" transform="translate(-212.026 -279.388)" fill="#1a1818"/>
</svg>
