<svg xmlns="http://www.w3.org/2000/svg" width="25.334" height="81.723" viewBox="0 0 25.334 81.723">
  <g id="Grupo_1328" data-name="Grupo 1328" transform="translate(-1746.666 -821)">
    <g id="mouse" transform="translate(1746.666 866.958)">
      <g id="Grupo_684" data-name="Grupo 684" transform="translate(0)">
        <path id="Caminho_1056" data-name="Caminho 1056" d="M90.314,0H84.354a9.7,9.7,0,0,0-9.687,9.687V23.1A12.667,12.667,0,0,0,100,23.1V9.687A9.7,9.7,0,0,0,90.314,0Zm-2.98,5.961a.745.745,0,0,1,.745.745v4.471a.745.745,0,1,1-1.49,0V6.706A.745.745,0,0,1,87.334,5.961ZM98.511,23.1a11.177,11.177,0,0,1-22.354,0V9.687a8.205,8.205,0,0,1,8.2-8.2h2.235V4.608a2.231,2.231,0,0,0-1.49,2.1v4.471a2.235,2.235,0,1,0,4.471,0V6.706a2.231,2.231,0,0,0-1.49-2.1V1.49h2.235a8.205,8.205,0,0,1,8.2,8.2Z" transform="translate(-74.667)" fill="#fff"/>
      </g>
    </g>
    <rect id="Retângulo_572" data-name="Retângulo 572" width="0.76" height="37.24" rx="0.38" transform="translate(1758.826 821)" fill="#fff"/>
  </g>
</svg>
