<?xml version="1.0" encoding="utf-8"?>
<svg xmlns="http://www.w3.org/2000/svg" width="44" height="44" viewBox="0 0 44 44">
  <g id="Grupo_1744" data-name="Grupo 1744" transform="translate(-783 -1575)">
    <g id="Retângulo_35" data-name="Retângulo 35" transform="translate(783 1575)" fill="none" stroke="#ef8611" stroke-width="1">
      <rect width="44" height="44" rx="8" stroke="none"/>
      <rect x="0.5" y="0.5" width="43" height="43" rx="7.5" fill="none"/>
    </g>
    <g id="Grupo_111" data-name="Grupo 111" transform="translate(795.655 1584.636)">
      <g id="Grupo_96" data-name="Grupo 96" transform="translate(0.252 0.252)">
        <g id="Grupo_95" data-name="Grupo 95" transform="translate(0 0)">
          <path id="Caminho_158" data-name="Caminho 158" d="M150.13,59.14c0,.224-.008.448-.027.672q-.012.156-.032.312l-.008.072c-.008.064.008-.061,0,0s-.019.12-.027.181a8.383,8.383,0,0,1-.3,1.245q-.1.3-.216.584c-.008.019-.037.091-.008.019-.011.021-.019.043-.029.064-.019.043-.037.085-.059.128-.045.1-.091.192-.139.285a8.318,8.318,0,0,1-.642,1.066l-.176.24c.045-.061-.029.037-.045.056-.037.045-.072.091-.109.136-.133.16-.275.317-.421.469s-.288.288-.44.424c-.075.067-.149.131-.224.195-.035.029-.072.059-.109.088s-.045.037-.069.053-.061.048-.016.013a8.427,8.427,0,0,1-1.042.68c-.181.1-.365.192-.552.277l-.147.064c-.011.005-.077.035-.035.016s-.053.021-.051.021c-.1.04-.2.08-.3.115a8.321,8.321,0,0,1-1.21.339c-.107.021-.216.04-.322.059-.048.008-.1.016-.144.021-.016,0-.08.011,0,0l-.109.013q-.324.036-.648.048a8.441,8.441,0,0,1-1.322-.053l-.072-.008c.075.011.013,0,0,0l-.163-.024c-.107-.019-.216-.037-.323-.059-.205-.043-.41-.091-.613-.149s-.41-.125-.613-.2c-.093-.035-.189-.072-.283-.109-.011-.005-.08-.032-.035-.013s-.024-.011-.035-.016l-.163-.072a8.348,8.348,0,0,1-1.09-.605c-.083-.053-.165-.109-.245-.168l-.115-.083a.683.683,0,0,1-.069-.053c-.008-.005-.083-.064-.043-.032l-.043-.032-.056-.043-.109-.088c-.08-.067-.16-.136-.237-.205a8.967,8.967,0,0,1-.848-.89c-.035-.04-.067-.08-.1-.123-.016-.019-.091-.117-.045-.056-.064-.083-.125-.168-.187-.253-.123-.171-.237-.349-.344-.528s-.205-.357-.3-.538c-.045-.091-.088-.179-.131-.272-.019-.043-.04-.085-.059-.128,0,0-.045-.1-.021-.051s-.016-.043-.021-.051a8.386,8.386,0,0,1-.389-1.207c-.048-.205-.091-.413-.123-.624l-.024-.163c-.008-.064.008.061,0,0,0-.029-.008-.061-.011-.091-.013-.109-.024-.221-.032-.331a8.541,8.541,0,0,1,0-1.306c.008-.109.019-.221.032-.331l.008-.072c0,.016-.011.077,0,0,.008-.061.019-.12.027-.181.035-.208.077-.416.125-.621a9.079,9.079,0,0,1,.392-1.2c.005-.013.029-.069,0,0,.011-.021.019-.043.029-.064.021-.048.043-.1.067-.144.045-.1.091-.192.139-.285.093-.184.192-.362.3-.538s.224-.357.346-.528l.083-.115c.013-.019.027-.037.043-.056l.032-.043c-.029.037.016-.019.021-.029s.029-.037.043-.056l.112-.136a8.49,8.49,0,0,1,.861-.89c.075-.067.149-.131.227-.195.035-.029.072-.059.109-.088s.045-.037.069-.053c.059-.045-.021.016.016-.013.163-.123.331-.243.5-.352a8.542,8.542,0,0,1,1.093-.6l.147-.064c.013-.005.072-.029,0,0,.021-.008.043-.019.067-.027.1-.04.2-.08.3-.115.2-.075.405-.139.613-.2s.408-.1.616-.147c.1-.021.2-.037.3-.053.048-.008.1-.016.144-.021.117-.016-.051.005.021,0l.091-.011a8.413,8.413,0,0,1,1.322-.048c.216.008.432.027.645.051,0,0,.117.013.056.008s.027,0,.037.005l.163.024c.107.019.216.037.323.059a8.212,8.212,0,0,1,1.207.344c.1.037.2.077.3.117.013.005.069.029,0,0l.064.029.163.072c.187.085.37.181.549.28s.354.205.525.317c.088.059.173.117.261.179l.115.083c.019.013.037.027.056.043s.1.075.029.021a8.263,8.263,0,0,1,.906.818c.144.152.285.309.418.469.029.035.059.072.088.109.013.019.029.037.043.056.069.088-.029-.037.013.016.064.083.125.168.187.253a8.521,8.521,0,0,1,.64,1.069c.045.091.088.179.131.272.019.043.037.085.059.131.008.019.037.091.008.019.011.027.021.053.035.083.077.192.149.389.213.586a8.32,8.32,0,0,1,.3,1.247l.024.163c-.011-.085.005.056.008.075.011.1.021.208.029.312.016.213.021.429.024.648a.4.4,0,1,0,.8,0,8.751,8.751,0,0,0-1.6-5.054,8.9,8.9,0,0,0-4.163-3.188,8.769,8.769,0,1,0,5.659,9.619,9.585,9.585,0,0,0,.112-1.381.4.4,0,0,0-.4-.4A.411.411,0,0,0,150.13,59.14Z" transform="translate(-133.391 -50.37)" fill="#ef8611"/>
        </g>
      </g>
      <g id="Grupo_98" data-name="Grupo 98" transform="translate(0.26 5.278)">
        <g id="Grupo_97" data-name="Grupo 97" transform="translate(0)">
          <path id="Caminho_159" data-name="Caminho 159" d="M150.4,242.7c0,.043-.005.085-.005.128,0,.077.011-.053.005-.029s-.008.051-.013.077a2.3,2.3,0,0,0-.08.259c-.008-.013.043-.093.008-.021l-.032.064c-.024.043-.048.088-.075.128s-.053.08-.08.117c-.051.069.005-.011.008-.008s-.045.056-.051.061a3.071,3.071,0,0,1-.221.235c-.04.037-.08.075-.123.109-.024.019-.045.04-.069.059s-.088.069-.043.035l-.045.035-.067.048c-.053.037-.109.075-.165.112-.112.072-.227.141-.344.205s-.253.133-.381.195c-.064.032-.131.061-.195.091l-.061.027a.749.749,0,0,0-.08.032c-.3.123-.613.229-.928.325a15.2,15.2,0,0,1-2.18.474c-.107.016-.112.016-.2.027s-.211.027-.315.037c-.208.024-.413.043-.621.059-.429.035-.861.053-1.293.059a20.358,20.358,0,0,1-2.551-.117c-.211-.024-.365-.043-.541-.069-.195-.029-.386-.059-.581-.1-.365-.067-.73-.144-1.09-.24-.325-.085-.65-.181-.968-.293q-.228-.08-.448-.168a.745.745,0,0,0-.08-.032c.04.016-.048-.021-.061-.027l-.211-.1a6.145,6.145,0,0,1-.722-.4c-.051-.035-.1-.067-.152-.1l-.067-.048c-.021-.016-.112-.088-.027-.019-.085-.072-.173-.141-.253-.219a3.071,3.071,0,0,1-.221-.235c-.005-.008-.051-.061-.051-.061s.059.08.008.008c-.029-.043-.059-.083-.085-.128a1.339,1.339,0,0,1-.067-.12.536.536,0,0,1-.027-.056c-.005-.013-.011-.027-.016-.037-.021-.04.029.083.016.04a2.641,2.641,0,0,1-.077-.259.448.448,0,0,0-.011-.059c-.013-.064.008.109,0,.019,0-.045-.005-.091-.005-.139s.005-.085.008-.128c0-.067-.019.093-.005.029.005-.021.008-.045.013-.067a1.862,1.862,0,0,0,.08-.259s-.045.1-.016.04a.307.307,0,0,0,.013-.029c.008-.019.019-.037.027-.056.024-.043.048-.088.075-.128s.053-.08.08-.117c.051-.069-.005.011-.008.008s.053-.064.059-.072a2.653,2.653,0,0,1,.224-.235c.04-.037.08-.075.123-.109l.059-.051c.029-.024.093-.072.024-.019q.144-.108.3-.208a6.4,6.4,0,0,1,.725-.4c.064-.032.131-.061.195-.091.019-.008.123-.053.045-.019.037-.016.075-.032.112-.045.149-.059.3-.117.45-.168a13.379,13.379,0,0,1,2.063-.528c.192-.035.386-.067.581-.093.163-.024.336-.045.541-.067.418-.045.84-.077,1.261-.1a20.367,20.367,0,0,1,2.583.043c.208.016.413.037.621.059.1.011.195.021.293.035.013,0,.115.016.072.008l.176.024c.373.056.746.123,1.117.2a12,12,0,0,1,1.964.594l.064.027c-.04-.016.064.027.077.035l.211.1c.123.059.245.123.365.187s.232.133.344.205c.051.035.1.067.152.1.027.019.053.037.077.056s.077.061.016.011a3.588,3.588,0,0,1,.482.461c0,.005.043.053.043.053s-.061-.085,0,0c.029.043.059.083.085.128s.045.08.067.12a.53.53,0,0,1,.027.056c.035.072-.005-.019,0-.011.024.083.059.163.075.248.005.021.008.045.013.067.013.067-.008-.1-.005-.029a.669.669,0,0,0-.005.144.4.4,0,0,0,.8,0,2.869,2.869,0,0,0-1.7-2.252,11.64,11.64,0,0,0-4.067-1.269,20.515,20.515,0,0,0-5.331-.091,13.372,13.372,0,0,0-4.363,1.154,3.391,3.391,0,0,0-2.044,2.106,2.468,2.468,0,0,0,1.325,2.4,7.6,7.6,0,0,0,1.682.816,13.1,13.1,0,0,0,2.14.562,20.345,20.345,0,0,0,5.291.248,14.825,14.825,0,0,0,4.542-1.016,4.107,4.107,0,0,0,2.41-2.039,1.8,1.8,0,0,0,.112-.618.4.4,0,0,0-.4-.4A.41.41,0,0,0,150.4,242.7Z" transform="translate(-133.666 -238.961)" fill="#ef8611"/>
        </g>
      </g>
      <g id="Grupo_100" data-name="Grupo 100" transform="translate(5.278 0.253)">
        <g id="Grupo_99" data-name="Grupo 99" transform="translate(0 0)">
          <path id="Caminho_160" data-name="Caminho 160" d="M325.7,51.2c.043,0,.085.005.128.005.077,0-.053-.011-.029-.005l.077.013a2.3,2.3,0,0,0,.259.08c-.013.008-.093-.043-.021-.008l.064.032c.043.024.088.048.128.075s.08.053.117.08c.069.051-.011-.005-.008-.008l.061.051a3.058,3.058,0,0,1,.235.221c.037.04.075.08.109.123.019.024.04.045.059.069s.069.088.035.043l.035.045.048.067c.037.053.075.109.112.165.072.112.141.227.205.344s.133.253.195.381c.032.064.061.131.091.195.005.013.043.1.027.061a.747.747,0,0,0,.032.08c.123.3.229.613.325.928a15.209,15.209,0,0,1,.474,2.18c.016.107.016.112.027.2s.027.211.037.315c.024.208.043.413.059.621.035.429.053.861.059,1.293a20.354,20.354,0,0,1-.117,2.551c-.024.211-.043.365-.069.541-.029.195-.059.386-.1.581-.067.365-.144.73-.24,1.09-.085.325-.181.65-.293.968q-.08.228-.168.448a.749.749,0,0,0-.032.08c.016-.04-.021.048-.027.061-.032.072-.064.141-.1.211a6.153,6.153,0,0,1-.4.722c-.035.051-.067.1-.1.152l-.048.067c-.016.021-.088.112-.019.027-.072.085-.141.173-.219.253a3.054,3.054,0,0,1-.235.221c-.008.005-.061.051-.061.051s.08-.059.008-.008c-.043.029-.083.059-.128.085a1.335,1.335,0,0,1-.12.067.526.526,0,0,1-.056.027l-.037.016c-.04.021.083-.029.04-.016a2.641,2.641,0,0,1-.259.077.453.453,0,0,0-.059.011c-.064.013.109-.008.019,0-.045,0-.091.005-.139.005s-.085-.005-.128-.008c-.067,0,.093.019.029.005-.021-.005-.045-.008-.067-.013a1.86,1.86,0,0,0-.259-.08s.1.045.04.016a.31.31,0,0,0-.029-.013l-.056-.027c-.043-.024-.088-.048-.128-.075s-.08-.053-.117-.08c-.069-.051.011.005.008.008s-.064-.053-.072-.059a2.657,2.657,0,0,1-.235-.224c-.037-.04-.075-.08-.109-.123l-.051-.059c-.024-.029-.072-.093-.019-.024q-.108-.144-.208-.3a6.4,6.4,0,0,1-.4-.725c-.032-.064-.061-.131-.091-.195-.008-.019-.053-.123-.019-.045-.016-.037-.032-.075-.045-.112-.059-.149-.117-.3-.168-.45a13.381,13.381,0,0,1-.528-2.063c-.035-.192-.067-.386-.093-.581-.024-.163-.045-.336-.067-.541-.045-.418-.077-.84-.1-1.261a20.384,20.384,0,0,1,.043-2.583c.016-.208.037-.413.059-.621.011-.1.021-.195.035-.293,0-.013.016-.115.008-.072l.024-.176c.056-.373.123-.746.2-1.117a12.007,12.007,0,0,1,.594-1.964c.005-.013.043-.1.027-.064s.027-.064.035-.077l.1-.211c.059-.123.123-.245.187-.365s.133-.232.205-.344c.035-.051.067-.1.1-.152.019-.027.037-.053.056-.077s.061-.077.011-.016a3.587,3.587,0,0,1,.461-.482c.005,0,.053-.043.053-.043s-.085.061,0,0c.043-.029.083-.059.128-.085s.08-.045.12-.067a.532.532,0,0,1,.056-.027c.072-.035-.019.005-.011,0,.083-.024.163-.059.248-.075.021-.005.045-.008.067-.013.067-.013-.1.008-.029.005a.668.668,0,0,0,.144.005.4.4,0,1,0,0-.8,2.869,2.869,0,0,0-2.252,1.7,11.641,11.641,0,0,0-1.269,4.067,20.514,20.514,0,0,0-.091,5.331,13.372,13.372,0,0,0,1.154,4.363,3.391,3.391,0,0,0,2.106,2.044,2.468,2.468,0,0,0,2.4-1.325,7.6,7.6,0,0,0,.816-1.682,13.1,13.1,0,0,0,.562-2.14,20.346,20.346,0,0,0,.248-5.291,14.827,14.827,0,0,0-1.016-4.542,4.107,4.107,0,0,0-2.039-2.41,1.8,1.8,0,0,0-.618-.112.4.4,0,0,0-.4.4A.41.41,0,0,0,325.7,51.2Z" transform="translate(-321.961 -50.399)" fill="#ef8611"/>
        </g>
      </g>
      <g id="Grupo_102" data-name="Grupo 102" transform="translate(0.655 0.666)">
        <g id="Grupo_101" data-name="Grupo 101" transform="translate(0 0)">
          <path id="Caminho_161" data-name="Caminho 161" d="M164.547,66.6a10.757,10.757,0,0,1,2.087,2.929c.061.125.12.251.176.378.016.037.035.077.051.115.053.123-.013-.035.016.04s.069.168.1.253c.112.288.211.581.3.877s.165.6.227.906c.029.139.056.28.077.421l.04.256c0,.005.011.077,0,.021.008.056.013.115.021.171a11.747,11.747,0,0,1,.064,1.836c-.013.272-.035.541-.067.81-.005.037-.008.072-.013.109,0,.016-.011.08,0,0-.008.067-.019.133-.029.2-.021.139-.045.275-.072.413a11.09,11.09,0,0,1-.41,1.525c-.043.123-.088.245-.133.368l-.064.165-.04.1c-.032.08.024-.051-.016.035-.1.237-.213.472-.331.7a11.069,11.069,0,0,1-.8,1.319c-.075.1-.149.208-.227.312l-.053.069c-.043.053.059-.072-.013.016-.043.056-.088.109-.131.163-.163.2-.33.392-.5.578a11.208,11.208,0,0,1-1.135,1.058c-.051.04-.1.08-.149.12s-.013.011,0,0l-.083.064c-.107.08-.216.16-.325.237-.211.147-.426.288-.645.421a11.449,11.449,0,0,1-1.394.714c.075-.032-.08.032-.1.04l-.165.064c-.133.051-.267.1-.4.147-.248.085-.5.163-.754.229s-.514.128-.776.176c-.12.024-.24.043-.36.061l-.216.032c.016,0,.077-.011,0,0-.048.005-.1.013-.147.019a11.282,11.282,0,0,1-1.7.067c-.32-.011-.64-.035-.957-.075l-.128-.016-.021,0-.256-.04q-.232-.04-.464-.088a11.488,11.488,0,0,1-1.78-.53c-.064-.027-.131-.051-.195-.077a.541.541,0,0,1-.059-.024c-.037-.016-.077-.032-.115-.051-.139-.061-.277-.128-.416-.195-.272-.136-.541-.28-.8-.437s-.514-.323-.76-.5-.416-.309-.666-.52c-.229-.195-.45-.4-.666-.613a.4.4,0,0,0-.565.565,11.667,11.667,0,0,0,17.114-15.835c-.195-.229-.4-.45-.613-.666a.407.407,0,0,0-.565,0,.412.412,0,0,0,.008.562Z" transform="translate(-148.487 -65.925)" fill="#ef8611"/>
        </g>
      </g>
      <g id="Grupo_104" data-name="Grupo 104" transform="translate(0 15.944)">
        <g id="Grupo_103" data-name="Grupo 103" transform="translate(0 0)">
          <path id="Caminho_162" data-name="Caminho 162" d="M125.358,639.239l-1.319,1.319a.4.4,0,0,0,.565.565l1.319-1.319a.4.4,0,1,0-.565-.565Z" transform="translate(-123.925 -639.125)" fill="#ef8611"/>
        </g>
      </g>
      <g id="Grupo_106" data-name="Grupo 106" transform="translate(15.947 0)">
        <g id="Grupo_105" data-name="Grupo 105" transform="translate(0)">
          <path id="Caminho_163" data-name="Caminho 163" d="M723.658,41.039l-1.319,1.319a.4.4,0,0,0,.565.565l1.319-1.319a.4.4,0,0,0-.565-.565Z" transform="translate(-722.225 -40.925)" fill="#ef8611"/>
        </g>
      </g>
      <g id="Grupo_108" data-name="Grupo 108" transform="translate(8.622 19.891)">
        <g id="Grupo_107" data-name="Grupo 107" transform="translate(0 0)">
          <path id="Caminho_164" data-name="Caminho 164" d="M447.4,787.585v4.424a.4.4,0,1,0,.8,0v-4.424a.4.4,0,0,0-.8,0Z" transform="translate(-447.4 -787.185)" fill="#ef8611"/>
        </g>
      </g>
      <g id="Grupo_110" data-name="Grupo 110" transform="translate(5.548 24.316)">
        <g id="Grupo_109" data-name="Grupo 109" transform="translate(0)">
          <path id="Caminho_165" data-name="Caminho 165" d="M332.485,954h6.13a.4.4,0,0,0,0-.8h-6.13a.4.4,0,0,0,0,.8Z" transform="translate(-332.085 -953.2)" fill="#ef8611"/>
        </g>
      </g>
    </g>
  </g>
</svg>
