<svg xmlns="http://www.w3.org/2000/svg" width="17.5" height="23.334" viewBox="0 0 17.5 23.334">
  <path id="unlock" d="M79.029,8.75H68.82V7.292a4.375,4.375,0,0,1,8.75,0h2.917a7.292,7.292,0,0,0-14.584,0V9.156a2.907,2.907,0,0,0-1.458,2.511v8.75a2.92,2.92,0,0,0,2.917,2.917H79.029a2.92,2.92,0,0,0,2.917-2.917v-8.75A2.92,2.92,0,0,0,79.029,8.75Zm-4.375,8.182v2.026H71.737V16.933a2.188,2.188,0,1,1,2.917,0Z" transform="translate(-64.445)" fill="#ef8611"/>
</svg>
