<svg id="Grupo_133" data-name="Grupo 133" xmlns="http://www.w3.org/2000/svg" width="17.698" height="17.31" viewBox="0 0 17.698 17.31">
  <path id="Caminho_123" data-name="Caminho 123" d="M18.288,28.21H7.056a3.234,3.234,0,0,0-3.233,3.234v2.6a3.233,3.233,0,0,0,3.233,3.233H18.288a3.234,3.234,0,0,0,3.233-3.233v-2.6A3.234,3.234,0,0,0,18.288,28.21ZM9.416,30.233H8.371v5.189H7.362V30.233H6.319V29.35h3.1Zm2.95,5.189H11.47v-.491a1.915,1.915,0,0,1-.517.414,1.079,1.079,0,0,1-.52.143.557.557,0,0,1-.468-.2.966.966,0,0,1-.157-.6V30.942H10.7v3.436a.383.383,0,0,0,.056.229.22.22,0,0,0,.184.071.509.509,0,0,0,.249-.094,1.209,1.209,0,0,0,.278-.241v-3.4h.895Zm3.249-.925a1.116,1.116,0,0,1-.211.729.744.744,0,0,1-.608.253,1.066,1.066,0,0,1-.469-.1,1.151,1.151,0,0,1-.383-.3v.343h-.906V29.35h.906v1.955a1.4,1.4,0,0,1,.383-.311.879.879,0,0,1,.414-.106.773.773,0,0,1,.648.285,1.334,1.334,0,0,1,.225.837V34.5Zm3.1-1.207H17.006v.844a.976.976,0,0,0,.087.49.334.334,0,0,0,.3.136.37.37,0,0,0,.311-.116.967.967,0,0,0,.089-.511v-.2h.921v.23a1.436,1.436,0,0,1-.338,1.038,1.334,1.334,0,0,1-1,.346,1.234,1.234,0,0,1-.948-.368,1.43,1.43,0,0,1-.346-1.016V32.148a1.264,1.264,0,0,1,.381-.95,1.35,1.35,0,0,1,.98-.366,1.256,1.256,0,0,1,.945.34,1.346,1.346,0,0,1,.33.976Z" transform="translate(-3.823 -19.965)" fill="#1a1818"/>
  <path id="Caminho_124" data-name="Caminho 124" d="M40.758,37.646a.355.355,0,0,0-.307.124.652.652,0,0,0-.093.4v.453h.791v-.453a.655.655,0,0,0-.095-.4A.343.343,0,0,0,40.758,37.646Z" transform="translate(-27.175 -25.996)" fill="#1a1818"/>
  <path id="Caminho_125" data-name="Caminho 125" d="M32.246,37.6a.441.441,0,0,0-.189.043.641.641,0,0,0-.185.137v2.79a.765.765,0,0,0,.212.159.526.526,0,0,0,.216.048.291.291,0,0,0,.242-.1.492.492,0,0,0,.077-.308V38.065a.535.535,0,0,0-.094-.345A.347.347,0,0,0,32.246,37.6Z" transform="translate(-21.751 -25.97)" fill="#1a1818"/>
  <path id="Caminho_126" data-name="Caminho 126" d="M14.464,12.049H15.6V9.274L16.92,5.36H15.767l-.7,2.674h-.071L14.256,5.36H13.113L14.464,9.4Z" transform="translate(-9.761 -5.36)" fill="#1a1818"/>
  <path id="Caminho_127" data-name="Caminho 127" d="M25.345,15.061a1.536,1.536,0,0,0,1.08-.36,1.286,1.286,0,0,0,.39-.993V11.159a1.187,1.187,0,0,0-.4-.923,1.486,1.486,0,0,0-1.026-.358,1.655,1.655,0,0,0-1.094.34,1.128,1.128,0,0,0-.407.913v2.558a1.307,1.307,0,0,0,.4,1A1.487,1.487,0,0,0,25.345,15.061Zm-.418-3.968a.336.336,0,0,1,.114-.262.447.447,0,0,1,.3-.1.5.5,0,0,1,.323.1.323.323,0,0,1,.123.262v2.689a.405.405,0,0,1-.121.312.454.454,0,0,1-.325.113.4.4,0,0,1-.308-.112.433.433,0,0,1-.107-.313V11.093Z" transform="translate(-16.649 -8.248)" fill="#1a1818"/>
  <path id="Caminho_128" data-name="Caminho 128" d="M34.968,15.23a1.268,1.268,0,0,0,.584-.158,2.137,2.137,0,0,0,.581-.46v.547h1.008V10.224H36.133v3.745a1.4,1.4,0,0,1-.31.265.584.584,0,0,1-.282.1.242.242,0,0,1-.2-.08.4.4,0,0,1-.065-.252V10.224H34.265v4.124a1.041,1.041,0,0,0,.176.66A.635.635,0,0,0,34.968,15.23Z" transform="translate(-23.281 -8.469)" fill="#1a1818"/>
</svg>
