<?xml version="1.0" encoding="utf-8"?>
<svg xmlns="http://www.w3.org/2000/svg" width="44" height="44" viewBox="0 0 44 44">
  <g id="Grupo_1745" data-name="Grupo 1745" transform="translate(-599 -1749)">
    <g id="Retângulo_70" data-name="Retângulo 70" transform="translate(599 1749)" fill="none" stroke="#ef8611" stroke-width="1">
      <rect width="44" height="44" rx="8" stroke="none"/>
      <rect x="0.5" y="0.5" width="43" height="43" rx="7.5" fill="none"/>
    </g>
    <g id="Grupo_113" data-name="Grupo 113" transform="translate(610.715 1760.715)">
      <path id="Caminho_168" data-name="Caminho 168" d="M14.335,3.5A10.835,10.835,0,1,0,25.169,14.335,10.846,10.846,0,0,0,14.335,3.5Zm0,20.8A9.968,9.968,0,1,1,24.3,14.335,9.979,9.979,0,0,1,14.335,24.3Z" transform="translate(-3.5 -3.5)" fill="#ef8611"/>
      <path id="Caminho_169" data-name="Caminho 169" d="M16.545,14.764l-1.679-.608a2,2,0,0,1,.685-3.88h.007a2.087,2.087,0,0,1,1.915,1.259.434.434,0,1,0,.8-.345,2.966,2.966,0,0,0-.623-.916,2.916,2.916,0,0,0-1.657-.823V7.933a.433.433,0,1,0-.867,0v1.51A2.873,2.873,0,0,0,12.857,11.3,2.866,2.866,0,0,0,14.57,14.97l1.68.609a2,2,0,0,1-.685,3.882h-.007a2.068,2.068,0,0,1-1.472-.608,2.106,2.106,0,0,1-.442-.653.434.434,0,0,0-.8.342,2.994,2.994,0,0,0,.624.921,2.924,2.924,0,0,0,1.65.823V21.8a.433.433,0,0,0,.867,0V20.3a2.868,2.868,0,0,0,.557-5.532Z" transform="translate(-4.723 -4.033)" fill="#ef8611"/>
    </g>
  </g>
</svg>
