<?xml version="1.0" encoding="utf-8"?>
<svg xmlns="http://www.w3.org/2000/svg" width="44" height="44" viewBox="0 0 44 44">
  <g id="Grupo_1747" data-name="Grupo 1747" transform="translate(-967 -1749)">
    <g id="Retângulo_69" data-name="Retângulo 69" transform="translate(967 1749)" fill="none" stroke="#ef8611" stroke-width="1">
      <rect width="44" height="44" rx="8" stroke="none"/>
      <rect x="0.5" y="0.5" width="43" height="43" rx="7.5" fill="none"/>
    </g>
    <g id="Grupo_121" data-name="Grupo 121" transform="translate(976.711 1759.975)">
      <path id="Caminho_175" data-name="Caminho 175" d="M14.178,42.992a1.664,1.664,0,0,0,1.715-1.6V29.617a1.664,1.664,0,0,0-1.715-1.6H11.064a1.664,1.664,0,0,0-1.715,1.6V41.388a1.664,1.664,0,0,0,1.715,1.6Zm-3.974-1.6V29.617a.81.81,0,0,1,.86-.748h3.114a.81.81,0,0,1,.86.748V41.388a.811.811,0,0,1-.86.748H11.064A.811.811,0,0,1,10.2,41.388Z" transform="translate(-9.349 -22.066)" fill="#ef8611"/>
      <path id="Caminho_176" data-name="Caminho 176" d="M70.155,5H67.041a1.939,1.939,0,0,0-1.715,2.1V23.826a1.939,1.939,0,0,0,1.715,2.1h3.114a1.939,1.939,0,0,0,1.716-2.1V7.1A1.939,1.939,0,0,0,70.155,5Zm.861,18.826c0,.674-.394,1.243-.861,1.243H67.041c-.466,0-.86-.57-.86-1.243V7.1c0-.674.394-1.244.86-1.244h3.114c.467,0,.861.569.861,1.244Z" transform="translate(-48.661 -5)" fill="#ef8611"/>
      <path id="Caminho_177" data-name="Caminho 177" d="M38.657,56.737h3.114c.962,0,1.715-.529,1.715-1.2v-7.78c0-.675-.753-1.2-1.715-1.2H38.657c-.962,0-1.715.528-1.715,1.2v7.78C36.942,56.207,37.7,56.737,38.657,56.737Zm-.86-8.985c0-.107.325-.35.86-.35h3.114c.535,0,.86.243.86.35v7.78c0,.107-.325.35-.86.35H38.657c-.535,0-.86-.243-.86-.35Z" transform="translate(-28.712 -35.812)" fill="#ef8611"/>
    </g>
  </g>
</svg>
